\relax 
\providecommand\hyper@newdestlabel[2]{}
\providecommand\HyperFirstAtBeginDocument{\AtBeginDocument}
\HyperFirstAtBeginDocument{\ifx\hyper@anchor\@undefined
\global\let\oldcontentsline\contentsline
\gdef\contentsline#1#2#3#4{\oldcontentsline{#1}{#2}{#3}}
\global\let\oldnewlabel\newlabel
\gdef\newlabel#1#2{\newlabelxx{#1}#2}
\gdef\newlabelxx#1#2#3#4#5#6{\oldnewlabel{#1}{{#2}{#3}}}
\AtEndDocument{\ifx\hyper@anchor\@undefined
\let\contentsline\oldcontentsline
\let\newlabel\oldnewlabel
\fi}
\fi}
\global\let\hyper@last\relax 
\gdef\HyperFirstAtBeginDocument#1{#1}
\providecommand\HyField@AuxAddToFields[1]{}
\providecommand\HyField@AuxAddToCoFields[2]{}
\citation{staffDalitz}
\citation{staffGAN}
\citation{staffSupervised}
\citation{staffDalitz}
\@writefile{toc}{\contentsline {section}{\numberline {1}Overview}{1}{section.1}}
\@writefile{toc}{\contentsline {section}{\numberline {2}My Approach}{1}{section.2}}
\citation{staffDalitz}
\citation{staffSupervised}
\citation{staffDalitz}
\@writefile{toc}{\contentsline {section}{\numberline {3}Progress So Far}{2}{section.3}}
\citation{*}
\bibstyle{apalike}
\bibdata{bibliography}
\bibcite{staffSupervised}{Calvo-Zaragoza et\nobreakspace  {}al., 2016}
\bibcite{endZar}{Calvo-Zaragoza et\nobreakspace  {}al., 2017a}
\bibcite{staffCNN}{Calvo-Zaragoza et\nobreakspace  {}al., 2017b}
\bibcite{staffConnPath}{Cardoso et\nobreakspace  {}al., 2008}
\bibcite{staffEfficient}{Dutta et\nobreakspace  {}al., 2010}
\bibcite{staffDalitz}{Fujinaga et\nobreakspace  {}al., 2007}
\bibcite{overviewMusc}{{Haji{\v c}} and {Pecina}, 2017}
\bibcite{staffGAN}{{Konwer} et\nobreakspace  {}al., 2018}
\bibcite{overviewOMR}{Novotn{\' y} and Pokorn{\' y}, 2015}
\bibcite{dataPach}{Pacha and Eidenberger, 2017}
\bibcite{classifyRebelo}{Rebelo et\nobreakspace  {}al., 2009}
\bibcite{staffCurvyTown}{Su et\nobreakspace  {}al., 2012}
\bibcite{endWel}{{van der Wel} and {Ullrich}, 2017}
\bibcite{classifyWen}{Wen et\nobreakspace  {}al., 2014}
