\relax 
\providecommand\hyper@newdestlabel[2]{}
\providecommand\HyperFirstAtBeginDocument{\AtBeginDocument}
\HyperFirstAtBeginDocument{\ifx\hyper@anchor\@undefined
\global\let\oldcontentsline\contentsline
\gdef\contentsline#1#2#3#4{\oldcontentsline{#1}{#2}{#3}}
\global\let\oldnewlabel\newlabel
\gdef\newlabel#1#2{\newlabelxx{#1}#2}
\gdef\newlabelxx#1#2#3#4#5#6{\oldnewlabel{#1}{{#2}{#3}}}
\AtEndDocument{\ifx\hyper@anchor\@undefined
\let\contentsline\oldcontentsline
\let\newlabel\oldnewlabel
\fi}
\fi}
\global\let\hyper@last\relax 
\gdef\HyperFirstAtBeginDocument#1{#1}
\providecommand\HyField@AuxAddToFields[1]{}
\providecommand\HyField@AuxAddToCoFields[2]{}
\@writefile{toc}{\beamer@endinputifotherversion {3.36pt}}
\@writefile{nav}{\beamer@endinputifotherversion {3.36pt}}
\@writefile{nav}{\headcommand {\slideentry {0}{0}{1}{1/1}{}{0}}}
\@writefile{nav}{\headcommand {\beamer@framepages {1}{1}}}
\@writefile{nav}{\headcommand {\slideentry {0}{0}{2}{2/7}{}{0}}}
\@writefile{nav}{\headcommand {\beamer@framepages {2}{7}}}
\@writefile{nav}{\headcommand {\slideentry {0}{0}{3}{8/18}{}{0}}}
\@writefile{nav}{\headcommand {\beamer@framepages {8}{18}}}
\@writefile{nav}{\headcommand {\slideentry {0}{0}{4}{19/19}{}{0}}}
\@writefile{nav}{\headcommand {\beamer@framepages {19}{19}}}
\@writefile{nav}{\headcommand {\slideentry {0}{0}{5}{20/26}{}{0}}}
\@writefile{nav}{\headcommand {\beamer@framepages {20}{26}}}
\@writefile{nav}{\headcommand {\slideentry {0}{0}{6}{27/30}{}{0}}}
\@writefile{nav}{\headcommand {\beamer@framepages {27}{30}}}
\@writefile{nav}{\headcommand {\slideentry {0}{0}{7}{31/42}{}{0}}}
\@writefile{nav}{\headcommand {\beamer@framepages {31}{42}}}
\@writefile{nav}{\headcommand {\slideentry {0}{0}{8}{43/46}{}{0}}}
\@writefile{nav}{\headcommand {\beamer@framepages {43}{46}}}
\@writefile{nav}{\headcommand {\slideentry {0}{0}{9}{47/53}{}{0}}}
\@writefile{nav}{\headcommand {\beamer@framepages {47}{53}}}
\@writefile{nav}{\headcommand {\slideentry {0}{0}{10}{54/58}{}{0}}}
\@writefile{nav}{\headcommand {\beamer@framepages {54}{58}}}
\@writefile{nav}{\headcommand {\slideentry {0}{0}{11}{59/65}{}{0}}}
\@writefile{nav}{\headcommand {\beamer@framepages {59}{65}}}
\@writefile{nav}{\headcommand {\slideentry {0}{0}{12}{66/72}{}{0}}}
\@writefile{nav}{\headcommand {\beamer@framepages {66}{72}}}
\@writefile{nav}{\headcommand {\slideentry {0}{0}{13}{73/77}{}{0}}}
\@writefile{nav}{\headcommand {\beamer@framepages {73}{77}}}
\@writefile{nav}{\headcommand {\slideentry {0}{0}{14}{78/87}{}{0}}}
\@writefile{nav}{\headcommand {\beamer@framepages {78}{87}}}
\@writefile{nav}{\headcommand {\slideentry {0}{0}{15}{88/93}{}{0}}}
\@writefile{nav}{\headcommand {\beamer@framepages {88}{93}}}
\@writefile{nav}{\headcommand {\slideentry {0}{0}{16}{94/105}{}{0}}}
\@writefile{nav}{\headcommand {\beamer@framepages {94}{105}}}
\@writefile{nav}{\headcommand {\slideentry {0}{0}{17}{106/109}{}{0}}}
\@writefile{nav}{\headcommand {\beamer@framepages {106}{109}}}
\@writefile{nav}{\headcommand {\beamer@partpages {1}{109}}}
\@writefile{nav}{\headcommand {\beamer@subsectionpages {1}{109}}}
\@writefile{nav}{\headcommand {\beamer@sectionpages {1}{109}}}
\@writefile{nav}{\headcommand {\beamer@documentpages {109}}}
\@writefile{nav}{\headcommand {\def \inserttotalframenumber {17}}}
