\relax 
\@writefile{loa}{\contentsline {algocf}{\numberline {1}{\ignorespaces Pseudocode of MSS($G$)}}{1}}
\@writefile{loa}{\contentsline {algocf}{\numberline {2}{\ignorespaces Pseudocode of greedy}}{2}}
