\relax 
\providecommand\hyper@newdestlabel[2]{}
\providecommand\HyperFirstAtBeginDocument{\AtBeginDocument}
\HyperFirstAtBeginDocument{\ifx\hyper@anchor\@undefined
\global\let\oldcontentsline\contentsline
\gdef\contentsline#1#2#3#4{\oldcontentsline{#1}{#2}{#3}}
\global\let\oldnewlabel\newlabel
\gdef\newlabel#1#2{\newlabelxx{#1}#2}
\gdef\newlabelxx#1#2#3#4#5#6{\oldnewlabel{#1}{{#2}{#3}}}
\AtEndDocument{\ifx\hyper@anchor\@undefined
\let\contentsline\oldcontentsline
\let\newlabel\oldnewlabel
\fi}
\fi}
\global\let\hyper@last\relax 
\gdef\HyperFirstAtBeginDocument#1{#1}
\providecommand\HyField@AuxAddToFields[1]{}
\providecommand\HyField@AuxAddToCoFields[2]{}
\@writefile{toc}{\contentsline {section}{\numberline {1}}{1}{section.1}}
\@writefile{toc}{\contentsline {section}{\numberline {2}}{1}{section.2}}
\@writefile{toc}{\contentsline {section}{\numberline {3}}{2}{section.3}}
\newlabel{bottom}{{3.1}{2}{3a)}{fact.3.1}{}}
\newlabel{tLoop}{{1c}{3}{3b)}{Item.15}{}}
\newlabel{query}{{1(c)ii}{3}{3b)}{Item.17}{}}
\newlabel{thatone}{{3.3}{3}{3b)}{fact.3.3}{}}
\newlabel{uhh}{{3.4}{3}{3b)}{fact.3.4}{}}
