\relax 
\providecommand\hyper@newdestlabel[2]{}
\providecommand\HyperFirstAtBeginDocument{\AtBeginDocument}
\HyperFirstAtBeginDocument{\ifx\hyper@anchor\@undefined
\global\let\oldcontentsline\contentsline
\gdef\contentsline#1#2#3#4{\oldcontentsline{#1}{#2}{#3}}
\global\let\oldnewlabel\newlabel
\gdef\newlabel#1#2{\newlabelxx{#1}#2}
\gdef\newlabelxx#1#2#3#4#5#6{\oldnewlabel{#1}{{#2}{#3}}}
\AtEndDocument{\ifx\hyper@anchor\@undefined
\let\contentsline\oldcontentsline
\let\newlabel\oldnewlabel
\fi}
\fi}
\global\let\hyper@last\relax 
\gdef\HyperFirstAtBeginDocument#1{#1}
\providecommand\HyField@AuxAddToFields[1]{}
\providecommand\HyField@AuxAddToCoFields[2]{}
\@writefile{toc}{\contentsline {section}{\numberline {1}}{1}{section.1}}
\newlabel{1a:diskEq}{{1}{1}{a)}{equation.1.1}{}}
\newlabel{1a:newPoints}{{2}{1}{a)}{equation.1.2}{}}
\newlabel{1a:lastBig}{{7}{1}{a)}{equation.1.7}{}}
\newlabel{1b:area}{{10}{2}{b)}{equation.1.10}{}}
\newlabel{1b:done}{{16}{2}{b)}{equation.1.16}{}}
\newlabel{1b:plug}{{17}{2}{b)}{equation.1.17}{}}
