\relax 
\providecommand\hyper@newdestlabel[2]{}
\providecommand\HyperFirstAtBeginDocument{\AtBeginDocument}
\HyperFirstAtBeginDocument{\ifx\hyper@anchor\@undefined
\global\let\oldcontentsline\contentsline
\gdef\contentsline#1#2#3#4{\oldcontentsline{#1}{#2}{#3}}
\global\let\oldnewlabel\newlabel
\gdef\newlabel#1#2{\newlabelxx{#1}#2}
\gdef\newlabelxx#1#2#3#4#5#6{\oldnewlabel{#1}{{#2}{#3}}}
\AtEndDocument{\ifx\hyper@anchor\@undefined
\let\contentsline\oldcontentsline
\let\newlabel\oldnewlabel
\fi}
\fi}
\global\let\hyper@last\relax 
\gdef\HyperFirstAtBeginDocument#1{#1}
\providecommand\HyField@AuxAddToFields[1]{}
\providecommand\HyField@AuxAddToCoFields[2]{}
\@writefile{toc}{\contentsline {section}{\numberline {1}}{1}{section.1}}
\newlabel{spanner}{{1.2}{1}{Algorithm 1: Preprocessing $G$}{fact.1.2}{}}
\@writefile{toc}{\contentsline {section}{\numberline {2}}{2}{section.2}}
\newlabel{expct_wH}{{2.1}{2}{}{fact.2.1}{}}
\newlabel{var:p}{{2.5}{3}{}{equation.2.5}{}}
\newlabel{var:omega}{{2.8}{3}{}{equation.2.8}{}}
\newlabel{var:final}{{2.12}{3}{}{equation.2.12}{}}
\@writefile{toc}{\contentsline {section}{\numberline {3}}{4}{section.3}}
\newlabel{exp}{{3.15}{4}{a)}{equation.3.15}{}}
\newlabel{taylor}{{3.16}{4}{a)}{equation.3.16}{}}
\newlabel{cross}{{3.19}{6}{c)}{equation.3.19}{}}
\newlabel{iid}{{3.21}{6}{c)}{equation.3.21}{}}
\newlabel{byebye}{{3.22}{6}{c)}{equation.3.22}{}}
\newlabel{sigmaboom}{{3.23}{6}{c)}{equation.3.23}{}}
\newlabel{expI}{{3.25}{6}{c)}{equation.3.25}{}}
\newlabel{ind_fu}{{3.28}{7}{c)}{equation.3.28}{}}
\newlabel{signs}{{3.29}{7}{c)}{equation.3.29}{}}
\newlabel{gop}{{3.30}{7}{c)}{equation.3.30}{}}
\newlabel{bigO}{{3.31}{7}{c)}{equation.3.31}{}}
\newlabel{kdef}{{3.33}{7}{c)}{equation.3.33}{}}
\newlabel{brb}{{3.34}{7}{c)}{equation.3.34}{}}
\newlabel{jensen}{{3.3}{7}{c)}{fact.3.3}{}}
\newlabel{noF}{{3.38}{8}{c)}{equation.3.38}{}}
\newlabel{claim}{{3.41}{8}{c)}{equation.3.41}{}}
