\relax 
\providecommand\hyper@newdestlabel[2]{}
\providecommand\HyperFirstAtBeginDocument{\AtBeginDocument}
\HyperFirstAtBeginDocument{\ifx\hyper@anchor\@undefined
\global\let\oldcontentsline\contentsline
\gdef\contentsline#1#2#3#4{\oldcontentsline{#1}{#2}{#3}}
\global\let\oldnewlabel\newlabel
\gdef\newlabel#1#2{\newlabelxx{#1}#2}
\gdef\newlabelxx#1#2#3#4#5#6{\oldnewlabel{#1}{{#2}{#3}}}
\AtEndDocument{\ifx\hyper@anchor\@undefined
\let\contentsline\oldcontentsline
\let\newlabel\oldnewlabel
\fi}
\fi}
\global\let\hyper@last\relax 
\gdef\HyperFirstAtBeginDocument#1{#1}
\providecommand\HyField@AuxAddToFields[1]{}
\providecommand\HyField@AuxAddToCoFields[2]{}
\@writefile{toc}{\contentsline {section}{\numberline {1}}{1}{section.1}}
\newlabel{boo}{{1}{1}{1(b)}{equation.1.1}{}}
\@writefile{thm}{\contentsline {claim}{{Claim}{1}{}}{2}{claim.1}}
\@writefile{thm}{\contentsline {proof}{{Proof}{1}{}}{2}{proof.1}}
\@writefile{toc}{\contentsline {section}{\numberline {2}}{2}{section.2}}
\@writefile{thm}{\contentsline {claim}{{Claim}{2}{}}{2}{claim.2}}
\@writefile{thm}{\contentsline {proof}{{Proof}{2}{}}{2}{proof.2}}
\@writefile{thm}{\contentsline {claim}{{Claim}{3}{}}{3}{claim.3}}
\@writefile{thm}{\contentsline {proof}{{Proof}{3}{}}{3}{proof.3}}
\@writefile{thm}{\contentsline {claim}{{Claim}{4}{}}{3}{claim.4}}
\@writefile{thm}{\contentsline {proof}{{Proof}{4}{}}{3}{proof.4}}
\global\def\markivproof{\ensuremath {_\blacksquare }}
\@writefile{toc}{\contentsline {section}{\numberline {3}}{4}{section.3}}
\@writefile{thm}{\contentsline {claim}{{Claim}{5}{}}{4}{claim.5}}
\@writefile{thm}{\contentsline {proof}{{Proof}{5}{}}{4}{proof.5}}
\@writefile{thm}{\contentsline {claim}{{Claim}{6}{}}{4}{claim.6}}
\newlabel{npnpnpbpp}{{6}{4}{3(a)}{claim.6}{}}
\@writefile{thm}{\contentsline {proof}{{Proof}{6}{}}{4}{proof.6}}
\@writefile{thm}{\contentsline {claim}{{Claim}{7}{}}{4}{claim.7}}
\newlabel{hmmm}{{7}{4}{3(a)}{claim.7}{}}
\@writefile{thm}{\contentsline {proof}{{Proof}{7}{}}{4}{proof.7}}
\newlabel{TODO: }{{3}{4}{3(a)}{proof.7}{}}
\@writefile{thm}{\contentsline {claim}{{Claim}{8}{}}{4}{claim.8}}
\@writefile{thm}{\contentsline {proof}{{Proof}{8}{}}{4}{proof.8}}
\@writefile{thm}{\contentsline {claim}{{Claim}{9}{}}{4}{claim.9}}
\@writefile{thm}{\contentsline {proof}{{Proof}{9}{}}{4}{proof.9}}
\@writefile{toc}{\contentsline {section}{\numberline {4}}{5}{section.4}}
\@writefile{thm}{\contentsline {claim}{{Claim}{10}{}}{5}{claim.10}}
\newlabel{construct}{{10}{5}{}{claim.10}{}}
\@writefile{thm}{\contentsline {proof}{{Proof}{10}{}}{5}{proof.10}}
\@writefile{thm}{\contentsline {claim}{{Claim}{11}{}}{5}{claim.11}}
\newlabel{expNum}{{11}{5}{}{claim.11}{}}
\@writefile{thm}{\contentsline {proof}{{Proof}{11}{}}{5}{proof.11}}
\@writefile{thm}{\contentsline {claim}{{Claim}{12}{}}{6}{claim.12}}
\@writefile{thm}{\contentsline {proof}{{Proof}{12}{}}{6}{proof.12}}
\@writefile{toc}{\contentsline {section}{\numberline {5}}{6}{section.5}}
\newlabel{oracle}{{{{2.}}}{6}{}{Item.9}{}}
\newlabel{Rsum}{{{{4.}}}{6}{}{Item.14}{}}
\@writefile{thm}{\contentsline {claim}{{Claim}{13}{}}{6}{claim.13}}
\@writefile{thm}{\contentsline {proof}{{Proof}{13}{}}{6}{proof.13}}
\@writefile{thm}{\contentsline {claim}{{Claim}{14}{}}{7}{claim.14}}
\@writefile{thm}{\contentsline {proof}{{Proof}{14}{}}{7}{proof.14}}
\@writefile{thm}{\contentsline {claim}{{Claim}{15}{}}{7}{claim.15}}
\@writefile{thm}{\contentsline {proof}{{Proof}{15}{}}{7}{proof.15}}
\@writefile{thm}{\contentsline {claim}{{Claim}{16}{}}{7}{claim.16}}
\newlabel{d}{{16}{7}{}{claim.16}{}}
\@writefile{thm}{\contentsline {proof}{{Proof}{16}{}}{7}{proof.16}}
\@writefile{thm}{\contentsline {claim}{{Claim}{17}{}}{7}{claim.17}}
\@writefile{thm}{\contentsline {proof}{{Proof}{17}{}}{7}{proof.17}}
