\BOOKMARK [1][-]{section.1}{Introduction}{}% 1
\BOOKMARK [1][-]{section.2}{Test Sets}{}% 2
\BOOKMARK [1][-]{section.3}{Accuracy of a model}{}% 3
\BOOKMARK [2][-]{subsection.3.1}{Curves: Plotting accuracy}{section.3}% 4
\BOOKMARK [1][-]{section.4}{Confidence intervals on error}{}% 5
\BOOKMARK [1][-]{section.5}{Comparing Learning Systems}{}% 6
\BOOKMARK [1][-]{section.6}{Avoiding Common Mistakes}{}% 7
\BOOKMARK [1][-]{section.7}{Model Selection \(tuning\)}{}% 8
