\relax 
\providecommand\hyper@newdestlabel[2]{}
\providecommand\HyperFirstAtBeginDocument{\AtBeginDocument}
\HyperFirstAtBeginDocument{\ifx\hyper@anchor\@undefined
\global\let\oldcontentsline\contentsline
\gdef\contentsline#1#2#3#4{\oldcontentsline{#1}{#2}{#3}}
\global\let\oldnewlabel\newlabel
\gdef\newlabel#1#2{\newlabelxx{#1}#2}
\gdef\newlabelxx#1#2#3#4#5#6{\oldnewlabel{#1}{{#2}{#3}}}
\AtEndDocument{\ifx\hyper@anchor\@undefined
\let\contentsline\oldcontentsline
\let\newlabel\oldnewlabel
\fi}
\fi}
\global\let\hyper@last\relax 
\gdef\HyperFirstAtBeginDocument#1{#1}
\providecommand\HyField@AuxAddToFields[1]{}
\providecommand\HyField@AuxAddToCoFields[2]{}
\@writefile{toc}{\contentsline {section}{\numberline {1}Introduction}{1}{section.1}}
\@writefile{toc}{\contentsline {section}{\numberline {2}Test Sets}{1}{section.2}}
\@writefile{toc}{\contentsline {section}{\numberline {3}Accuracy of a model}{2}{section.3}}
\@writefile{toc}{\contentsline {subsection}{\numberline {3.1}Curves: Plotting accuracy}{3}{subsection.3.1}}
\@writefile{toc}{\contentsline {section}{\numberline {4}Confidence intervals on error}{5}{section.4}}
\@writefile{toc}{\contentsline {section}{\numberline {5}Comparing Learning Systems}{5}{section.5}}
\@writefile{toc}{\contentsline {section}{\numberline {6}Avoiding Common Mistakes}{6}{section.6}}
\@writefile{toc}{\contentsline {section}{\numberline {7}Model Selection (tuning)}{7}{section.7}}
