\relax 
\providecommand\hyper@newdestlabel[2]{}
\providecommand\HyperFirstAtBeginDocument{\AtBeginDocument}
\HyperFirstAtBeginDocument{\ifx\hyper@anchor\@undefined
\global\let\oldcontentsline\contentsline
\gdef\contentsline#1#2#3#4{\oldcontentsline{#1}{#2}{#3}}
\global\let\oldnewlabel\newlabel
\gdef\newlabel#1#2{\newlabelxx{#1}#2}
\gdef\newlabelxx#1#2#3#4#5#6{\oldnewlabel{#1}{{#2}{#3}}}
\AtEndDocument{\ifx\hyper@anchor\@undefined
\let\contentsline\oldcontentsline
\let\newlabel\oldnewlabel
\fi}
\fi}
\global\let\hyper@last\relax 
\gdef\HyperFirstAtBeginDocument#1{#1}
\providecommand\HyField@AuxAddToFields[1]{}
\providecommand\HyField@AuxAddToCoFields[2]{}
\@writefile{toc}{\contentsline {section}{\numberline {1}}{1}{section.1}}
\@writefile{thm}{\contentsline {theorem}{{Theorem}{1}{}}{1}{theorem.1.1}}
\@writefile{thm}{\contentsline {proof}{{Proof}{1}{}}{1}{proof.1}}
\@writefile{thm}{\contentsline {lemma}{{Lemma}{1}{}}{1}{lemma.1}}
\@writefile{thm}{\contentsline {proof}{{Proof}{2}{}}{1}{proof.2}}
\global\def\markiiproof{\ensuremath {_\blacksquare }}
\@writefile{thm}{\contentsline {lemma}{{Lemma}{2}{}}{1}{lemma.2}}
\@writefile{thm}{\contentsline {proof}{{Proof}{3}{}}{1}{proof.3}}
\global\def\markiiiproof{\ensuremath {_\blacksquare }}
\@writefile{toc}{\contentsline {section}{\numberline {2}}{2}{section.2}}
\@writefile{thm}{\contentsline {theorem}{{Theorem}{2}{}}{2}{theorem.2.2}}
\@writefile{thm}{\contentsline {proof}{{Proof}{4}{}}{2}{proof.4}}
\@writefile{thm}{\contentsline {lemma}{{Lemma}{3}{}}{2}{lemma.3}}
\@writefile{thm}{\contentsline {proof}{{Proof}{5}{}}{2}{proof.5}}
\@writefile{thm}{\contentsline {lemma}{{Lemma}{4}{}}{2}{lemma.4}}
\@writefile{thm}{\contentsline {proof}{{Proof}{6}{}}{2}{proof.6}}
\@writefile{thm}{\contentsline {claim}{{Claim}{1}{}}{2}{claim.1}}
\newlabel{reHard}{{1}{2}{}{claim.1}{}}
\@writefile{thm}{\contentsline {proof}{{Proof}{7}{}}{2}{proof.7}}
\@writefile{thm}{\contentsline {claim}{{Claim}{2}{}}{3}{claim.2}}
\newlabel{oneQuery}{{2}{3}{}{claim.2}{}}
\@writefile{thm}{\contentsline {proof}{{Proof}{8}{}}{3}{proof.8}}
\@writefile{thm}{\contentsline {claim}{{Claim}{3}{}}{4}{claim.3}}
\@writefile{thm}{\contentsline {proof}{{Proof}{9}{}}{4}{proof.9}}
\global\def\markixproof{\ensuremath {_\blacksquare }}
\@writefile{toc}{\contentsline {section}{\numberline {3}}{5}{section.3}}
\@writefile{thm}{\contentsline {theorem}{{Theorem}{3}{}}{5}{theorem.3.3}}
\@writefile{thm}{\contentsline {proof}{{Proof}{10}{}}{5}{proof.10}}
\@writefile{thm}{\contentsline {claim}{{Claim}{4}{}}{5}{claim.4}}
\newlabel{claim1}{{4}{5}{}{claim.4}{}}
\@writefile{thm}{\contentsline {proof}{{Proof}{11}{}}{5}{proof.11}}
\@writefile{thm}{\contentsline {claim}{{Claim}{5}{}}{6}{claim.5}}
\newlabel{claim2}{{5}{6}{}{claim.5}{}}
\@writefile{thm}{\contentsline {proof}{{Proof}{12}{}}{6}{proof.12}}
\@writefile{thm}{\contentsline {claim}{{Claim}{6}{}}{7}{claim.6}}
\newlabel{claim3}{{6}{7}{}{claim.6}{}}
\@writefile{thm}{\contentsline {proof}{{Proof}{13}{}}{7}{proof.13}}
\@writefile{thm}{\contentsline {claim}{{Claim}{7}{}}{8}{claim.7}}
\newlabel{claim4}{{7}{8}{}{claim.7}{}}
\@writefile{thm}{\contentsline {proof}{{Proof}{14}{}}{8}{proof.14}}
\newlabel{FFF}{{23}{8}{}{equation.3.23}{}}
\global\def\markxivproofii{\ensuremath {_\blacksquare }}
\@writefile{toc}{\contentsline {section}{\numberline {4}}{9}{section.4}}
\@writefile{thm}{\contentsline {theorem}{{Theorem}{4}{}}{9}{theorem.4.4}}
\@writefile{thm}{\contentsline {proof}{{Proof}{15}{}}{9}{proof.15}}
\newlabel{sat1}{{1}{9}{4(a)}{Item.39}{}}
\newlabel{sat2}{{1a}{10}{4(a)}{Item.40}{}}
\newlabel{sat3}{{1(a)i}{10}{4(a)}{Item.41}{}}
\newlabel{sat4}{{1(a)iA}{10}{4(a)}{Item.42}{}}
\newlabel{sat5}{{1(a)iB}{10}{4(a)}{Item.43}{}}
\newlabel{sat6}{{1b}{10}{4(a)}{Item.44}{}}
\newlabel{sat7}{{2}{10}{4(a)}{Item.45}{}}
\@writefile{thm}{\contentsline {claim}{{Claim}{8}{}}{10}{claim.8}}
\@writefile{thm}{\contentsline {proof}{{Proof}{16}{}}{10}{proof.16}}
\global\def\markxviproof{\ensuremath {_\blacksquare }}
\@writefile{thm}{\contentsline {claim}{{Claim}{9}{}}{10}{claim.9}}
\@writefile{thm}{\contentsline {proof}{{Proof}{17}{}}{10}{proof.17}}
\@writefile{thm}{\contentsline {theorem}{{Theorem}{5}{}}{10}{theorem.4.5}}
\@writefile{thm}{\contentsline {proof}{{Proof}{18}{}}{11}{proof.18}}
\@writefile{thm}{\contentsline {claim}{{Claim}{10}{}}{11}{claim.10}}
\@writefile{thm}{\contentsline {proof}{{Proof}{19}{}}{11}{proof.19}}
\global\def\markxixproof{\ensuremath {_\blacksquare }}
\@writefile{thm}{\contentsline {theorem}{{Theorem}{6}{}}{11}{theorem.4.6}}
\@writefile{toc}{\contentsline {section}{\numberline {5}}{11}{section.5}}
\@writefile{thm}{\contentsline {claim}{{Claim}{11}{}}{11}{claim.11}}
\@writefile{thm}{\contentsline {proof}{{Proof}{20}{}}{11}{proof.20}}
\global\def\markxxproofi{\ensuremath {_\blacksquare }}
\@writefile{thm}{\contentsline {claim}{{Claim}{12}{}}{11}{claim.12}}
\@writefile{thm}{\contentsline {claim}{{Claim}{13}{}}{11}{claim.13}}
\@writefile{thm}{\contentsline {proof}{{Proof}{21}{}}{11}{proof.21}}
