\relax 
\@writefile{toc}{\contentsline {paragraph}{1(a)}{1}}
\@writefile{toc}{\contentsline {paragraph}{1(b)}{2}}
\@writefile{toc}{\contentsline {paragraph}{2(a)}{3}}
\@writefile{toc}{\contentsline {paragraph}{2(b)}{3}}
\@writefile{lof}{\contentsline {figure}{\numberline {0.1}{\ignorespaces An Example of Circle Separation.}}{4}}
\newlabel{fig:circle_example}{{0.1}{4}}
\newlabel{claim:1}{{0.1}{5}}
\newlabel{claim:2}{{0.2}{5}}
\newlabel{claim:3}{{0.3}{6}}
