\relax 
\newlabel{alg:dijk2}{{1}{2}}
\@writefile{loa}{\contentsline {algocf}{\numberline {1}{\ignorespaces ModifiedDijkstra's($G, \ell , s$)}}{2}}
\newlabel{alg:dijk}{{2}{6}}
\@writefile{loa}{\contentsline {algocf}{\numberline {2}{\ignorespaces FindMin($i,j$) \hfill \relax \fontsize  {9}{11}\selectfont  \abovedisplayskip 8.5\p@ plus3\p@ minus4\p@ \abovedisplayshortskip \z@ plus2\p@ \belowdisplayshortskip 4\p@ plus2\p@ minus2\p@ \def \leftmargin \leftmargini \parsep 4\p@ plus2\p@ minus\p@ \topsep 8\p@ plus2\p@ minus4\p@ \itemsep 4\p@ plus2\p@ minus\p@ {\leftmargin \leftmargini \topsep 4\p@ plus2\p@ minus2\p@ \parsep 2\p@ plus\p@ minus\p@ \itemsep \parsep }\belowdisplayskip \abovedisplayskip // Returns the index of the minimum element in $A[i\cdots  j]$.}}{6}}
