\relax 
\providecommand\hyper@newdestlabel[2]{}
\providecommand\HyperFirstAtBeginDocument{\AtBeginDocument}
\HyperFirstAtBeginDocument{\ifx\hyper@anchor\@undefined
\global\let\oldcontentsline\contentsline
\gdef\contentsline#1#2#3#4{\oldcontentsline{#1}{#2}{#3}}
\global\let\oldnewlabel\newlabel
\gdef\newlabel#1#2{\newlabelxx{#1}#2}
\gdef\newlabelxx#1#2#3#4#5#6{\oldnewlabel{#1}{{#2}{#3}}}
\AtEndDocument{\ifx\hyper@anchor\@undefined
\let\contentsline\oldcontentsline
\let\newlabel\oldnewlabel
\fi}
\fi}
\global\let\hyper@last\relax 
\gdef\HyperFirstAtBeginDocument#1{#1}
\providecommand\HyField@AuxAddToFields[1]{}
\providecommand\HyField@AuxAddToCoFields[2]{}
\@writefile{toc}{\contentsline {section}{\numberline {1}Introduction}{1}{section.1}}
\@writefile{thm}{\contentsline {theorem}{{Theorem}{1}{}}{1}{theorem.1.1}}
\newlabel{coNP}{{1}{1}{Introduction}{theorem.1.1}{}}
\@writefile{thm}{\contentsline {theorem}{{Theorem}{2}{}}{1}{theorem.1.2}}
\newlabel{selector}{{2}{1}{Introduction}{theorem.1.2}{}}
\@writefile{toc}{\contentsline {section}{\numberline {2}Compression of a Language}{1}{section.2}}
\@writefile{thm}{\contentsline {definition}{{Definition}{1}{compression to length $l$}}{1}{definition.1}}
\@writefile{thm}{\contentsline {definition}{{Definition}{2}{\cc {OR(L)}}}{1}{definition.2}}
\@writefile{thm}{\contentsline {claim}{{Claim}{1}{}}{2}{claim.1}}
\@writefile{thm}{\contentsline {proof}{{Proof}{1}{}}{2}{proof.1}}
\newlabel{TODO:why is this true}{{1}{2}{Compression of a Language}{proof.1}{}}
\@writefile{thm}{\contentsline {theorem}{{Theorem}{3}{}}{2}{theorem.2.3}}
\newlabel{compression}{{3}{2}{Compression of a Language}{theorem.2.3}{}}
\@writefile{thm}{\contentsline {proof}{{Proof}{2}{of Theorem \ref {compression}}}{2}{proof.2}}
\newlabel{TODO:elaborate}{{2}{2}{Compression of a Language}{proof.2}{}}
\@writefile{thm}{\contentsline {claim}{{Claim}{2}{}}{3}{claim.2}}
\@writefile{thm}{\contentsline {proof}{{Proof}{3}{}}{3}{proof.3}}
\newlabel{TODO:someting about s=n}{{3}{3}{Compression of a Language}{proof.3}{}}
\newlabel{TODO: explain}{{2}{3}{Compression of a Language}{proof.3}{}}
\newlabel{TODO: maybe explain}{{2}{3}{Compression of a Language}{proof.3}{}}
\newlabel{TODO: really this makes no sense}{{2}{3}{Compression of a Language}{proof.3}{}}
\@writefile{thm}{\contentsline {corollary}{{Corollary}{1}{}}{4}{corollary.1}}
\newlabel{satPH}{{1}{4}{Compression of a Language}{corollary.1}{}}
\@writefile{thm}{\contentsline {proof}{{Proof}{4}{}}{4}{proof.4}}
\@writefile{toc}{\contentsline {section}{\numberline {3}Kernelization Lower Bounds for Vertex Cover}{4}{section.3}}
\@writefile{thm}{\contentsline {definition}{{Definition}{3}{fixed-parameter tractable}}{4}{definition.3}}
\@writefile{toc}{\contentsline {subsection}{\numberline {3.1}A Fixed-Parameter Tractable Algorithm for Vertex Cover}{4}{subsection.3.1}}
\@writefile{thm}{\contentsline {definition}{{Definition}{4}{Kernelization}}{4}{definition.4}}
\@writefile{thm}{\contentsline {claim}{{Claim}{3}{}}{4}{claim.3}}
\@writefile{thm}{\contentsline {proof}{{Proof}{5}{}}{5}{proof.5}}
\@writefile{thm}{\contentsline {theorem}{{Theorem}{4}{}}{5}{theorem.3.4}}
\newlabel{ker}{{4}{5}{A Fixed-Parameter Tractable Algorithm for Vertex Cover}{theorem.3.4}{}}
\@writefile{thm}{\contentsline {proof}{{Proof}{6}{}}{5}{proof.6}}
\@writefile{toc}{\contentsline {subsection}{\numberline {3.2}A Lower Bound for Kernelizations of \ensuremath  {\mathrm  {VC}}}{5}{subsection.3.2}}
\@writefile{thm}{\contentsline {theorem}{{Theorem}{5}{}}{5}{theorem.3.5}}
\newlabel{eps}{{5}{5}{A Lower Bound for Kernelizations of \cc {VC}}{theorem.3.5}{}}
\@writefile{thm}{\contentsline {corollary}{{Corollary}{2}{}}{6}{corollary.2}}
\@writefile{thm}{\contentsline {proof}{{Proof}{7}{of Theorem \ref {eps}}}{6}{proof.7}}
\@writefile{thm}{\contentsline {claim}{{Claim}{4}{}}{6}{claim.4}}
\newlabel{TODO: why is it n-k' and not m-k'}{{7}{6}{A Lower Bound for Kernelizations of \cc {VC}}{claim.4}{}}
\bibstyle{plain}
\bibcite{fpt}{1}
\newlabel{TODO: I never quite got this}{{7}{7}{A Lower Bound for Kernelizations of \cc {VC}}{claim.4}{}}
\@writefile{thm}{\contentsline {lemma}{{Lemma}{1}{Packing Lemma}}{7}{lemma.1}}
\@writefile{toc}{\contentsline {section}{\numberline {4}Next Time}{7}{section.4}}
\bibcite{fpt2}{2}
\newlabel{Sipser}{{2}{8}{\refname }{section*.1}{}}
