\relax 
\providecommand\hyper@newdestlabel[2]{}
\providecommand\HyperFirstAtBeginDocument{\AtBeginDocument}
\HyperFirstAtBeginDocument{\ifx\hyper@anchor\@undefined
\global\let\oldcontentsline\contentsline
\gdef\contentsline#1#2#3#4{\oldcontentsline{#1}{#2}{#3}}
\global\let\oldnewlabel\newlabel
\gdef\newlabel#1#2{\newlabelxx{#1}#2}
\gdef\newlabelxx#1#2#3#4#5#6{\oldnewlabel{#1}{{#2}{#3}}}
\AtEndDocument{\ifx\hyper@anchor\@undefined
\let\contentsline\oldcontentsline
\let\newlabel\oldnewlabel
\fi}
\fi}
\global\let\hyper@last\relax 
\gdef\HyperFirstAtBeginDocument#1{#1}
\providecommand\HyField@AuxAddToFields[1]{}
\providecommand\HyField@AuxAddToCoFields[2]{}
\citation{blum}
\citation{mcGreg}
\@writefile{toc}{\contentsline {section}{\numberline {1}Introduction}{1}{section.1}}
\citation{kap3}
\citation{sun}
\citation{sun}
\citation{kush}
\@writefile{toc}{\contentsline {subsection}{\numberline {1.1}Lower Bounds and Proof Methods}{2}{subsection.1.1}}
\@writefile{toc}{\contentsline {section}{\numberline {2}Preliminaries}{2}{section.2}}
\newlabel{PRESENTATION}{{2}{2}{Preliminaries}{section.2}{}}
\@writefile{toc}{\contentsline {subsection}{\numberline {2.1}Communication Complexity}{2}{subsection.2.1}}
\citation{feig}
\citation{kush}
\@writefile{toc}{\contentsline {subsection}{\numberline {2.2}From Communication to Streaming}{3}{subsection.2.2}}
\newlabel{stream}{{2.2}{3}{From Communication to Streaming}{subsection.2.2}{}}
\@writefile{toc}{\contentsline {section}{\numberline {3}Lower Bounds from Index}{3}{section.3}}
\@writefile{toc}{\contentsline {subsection}{\numberline {3.1}The ``Index'' Problem}{3}{subsection.3.1}}
\newlabel{index}{{3.1}{3}{The ``Index'' Problem}{subsection.3.1}{}}
\@writefile{thm}{\contentsline {theorem}{{Theorem}{1}{}}{3}{theorem.3.1}}
\newlabel{thm:index}{{1}{3}{The ``Index'' Problem}{theorem.3.1}{}}
\citation{sun}
\@writefile{toc}{\contentsline {subsection}{\numberline {3.2}Balanced Properties}{4}{subsection.3.2}}
\newlabel{balanced}{{3.2}{4}{Balanced Properties}{subsection.3.2}{}}
\@writefile{thm}{\contentsline {definition}{{Definition}{1}{}}{4}{definition.1}}
\newlabel{eq:balanced}{{1}{4}{Balanced Properties}{equation.3.1}{}}
\@writefile{thm}{\contentsline {theorem}{{Theorem}{2}{}}{4}{theorem.3.2}}
\@writefile{thm}{\contentsline {proof}{{Proof}{1}{}}{4}{proof.1}}
\newlabel{QUESTION: why?}{{1}{4}{Balanced Properties}{proof.1}{}}
\newlabel{QUESTION: how does he know v_j after the relabelling?}{{1}{4}{Balanced Properties}{proof.1}{}}
\@writefile{toc}{\contentsline {section}{\numberline {4}Lower Bounds from Perm}{5}{section.4}}
\newlabel{TODO: clean up}{{4}{5}{Lower Bounds from Perm}{section.4}{}}
\newlabel{PRESENTATION2}{{4}{5}{Lower Bounds from Perm}{section.4}{}}
\@writefile{toc}{\contentsline {subsection}{\numberline {4.1}The ``Perm'' Problem}{5}{subsection.4.1}}
\newlabel{perm}{{4.1}{5}{The ``Perm'' Problem}{subsection.4.1}{}}
\@writefile{thm}{\contentsline {theorem}{{Theorem}{3}{}}{5}{theorem.4.3}}
\newlabel{thm:perm}{{3}{5}{The ``Perm'' Problem}{theorem.4.3}{}}
\@writefile{toc}{\contentsline {subsection}{\numberline {4.2}Connectivity}{5}{subsection.4.2}}
\@writefile{thm}{\contentsline {theorem}{{Theorem}{4}{}}{5}{theorem.4.4}}
\newlabel{thm:conn}{{4}{5}{Connectivity}{theorem.4.4}{}}
\@writefile{thm}{\contentsline {proof}{{Proof}{2}{}}{5}{proof.2}}
\global\def\markiiproofii{\ensuremath {_\blacksquare }}
\@writefile{toc}{\contentsline {subsection}{\numberline {4.3}Bipartiteness \& Cycle-Freeness}{6}{subsection.4.3}}
\@writefile{thm}{\contentsline {theorem}{{Theorem}{5}{}}{6}{theorem.4.5}}
\@writefile{thm}{\contentsline {proof}{{Proof}{3}{}}{6}{proof.3}}
\citation{mcGreg}
\citation{huang}
\@writefile{thm}{\contentsline {theorem}{{Theorem}{6}{}}{7}{theorem.4.6}}
\@writefile{toc}{\contentsline {subsection}{\numberline {4.4}Minimum Spanning Tree}{7}{subsection.4.4}}
\newlabel{sun:mst}{{4.4}{7}{Minimum Spanning Tree}{subsection.4.4}{}}
\@writefile{thm}{\contentsline {theorem}{{Theorem}{7}{}}{7}{theorem.4.7}}
\@writefile{thm}{\contentsline {proof}{{Proof}{4}{}}{7}{proof.4}}
\citation{verbin}
\citation{huang}
\citation{feig}
\@writefile{toc}{\contentsline {section}{\numberline {5}Lower Bounds from BHH}{8}{section.5}}
\@writefile{toc}{\contentsline {subsection}{\numberline {5.1}BHH Definition}{8}{subsection.5.1}}
\@writefile{thm}{\contentsline {theorem}{{Theorem}{8}{}}{8}{theorem.5.8}}
\@writefile{toc}{\contentsline {subsection}{\numberline {5.2}Reductions from $\textsc  {BHH}_n^t$}{8}{subsection.5.2}}
\newlabel{imDumb}{{5.2}{8}{Reductions from $\textsc {BHH}_n^t$}{subsection.5.2}{}}
\@writefile{thm}{\contentsline {theorem}{{Theorem}{9}{}}{8}{theorem.5.9}}
\newlabel{thm:mstW}{{9}{8}{Reductions from $\textsc {BHH}_n^t$}{theorem.5.9}{}}
\@writefile{toc}{\contentsline {section}{\numberline {6}Related Work}{8}{section.6}}
\newlabel{TODO: write this}{{6}{8}{Related Work}{section.6}{}}
\citation{sun}
\citation{huang}
\citation{kush}
\citation{ilan}
\citation{ziv}
\citation{amit}
\citation{phil}
\citation{eric}
\citation{gal}
\citation{kap2}
\citation{kap}
\citation{conrad}
\citation{sun}
\citation{*}
\bibstyle{alpha}
\bibdata{bibliography}
\bibcite{eric}{BBM12}
\bibcite{blum}{BHK17}
\bibcite{ziv}{BYJKS04}
\bibcite{amit}{CSWY01}
\bibcite{feig2}{FKM{$^{+}$}05}
\bibcite{feig}{FKM{$^{+}$}08}
\bibcite{gal}{GG09}
\bibcite{huang}{HP16}
\bibcite{kap}{KKS14}
\bibcite{kap3}{KLM{$^{+}$}14a}
\bibcite{kap2}{KLM{$^{+}$}14b}
\bibcite{kush}{KN97}
\bibcite{ilan}{KNR95}
\bibcite{conrad}{Kon15}
\bibcite{mcGreg}{McG14}
\bibcite{phil}{PVZ12}
\bibcite{sun}{SW15}
\bibcite{verbin}{VY11}
