\relax 
\providecommand\hyper@newdestlabel[2]{}
\providecommand\HyperFirstAtBeginDocument{\AtBeginDocument}
\HyperFirstAtBeginDocument{\ifx\hyper@anchor\@undefined
\global\let\oldcontentsline\contentsline
\gdef\contentsline#1#2#3#4{\oldcontentsline{#1}{#2}{#3}}
\global\let\oldnewlabel\newlabel
\gdef\newlabel#1#2{\newlabelxx{#1}#2}
\gdef\newlabelxx#1#2#3#4#5#6{\oldnewlabel{#1}{{#2}{#3}}}
\AtEndDocument{\ifx\hyper@anchor\@undefined
\let\contentsline\oldcontentsline
\let\newlabel\oldnewlabel
\fi}
\fi}
\global\let\hyper@last\relax 
\gdef\HyperFirstAtBeginDocument#1{#1}
\providecommand\HyField@AuxAddToFields[1]{}
\providecommand\HyField@AuxAddToCoFields[2]{}
\@writefile{toc}{\contentsline {section}{\numberline {1}}{1}{section.1}}
\newlabel{quit}{{{{3.}}}{1}{}{Item.4}{}}
\newlabel{loop}{{{{4.}}}{1}{}{Item.5}{}}
\@writefile{thm}{\contentsline {claim}{{Claim}{1}{}}{1}{claim.1}}
\@writefile{thm}{\contentsline {proof}{{Proof}{1}{}}{1}{proof.1}}
\newlabel{quit}{{1}{1}{}{proof.1}{}}
\@writefile{thm}{\contentsline {claim}{{Claim}{2}{}}{1}{claim.2}}
\@writefile{thm}{\contentsline {proof}{{Proof}{2}{}}{2}{proof.2}}
\@writefile{toc}{\contentsline {section}{\numberline {2}}{2}{section.2}}
\@writefile{toc}{\contentsline {section}{\numberline {3}}{2}{section.3}}
\@writefile{thm}{\contentsline {claim}{{Claim}{3}{}}{3}{claim.3}}
\@writefile{thm}{\contentsline {proof}{{Proof}{3}{}}{3}{proof.3}}
\@writefile{thm}{\contentsline {claim}{{Claim}{4}{}}{3}{claim.4}}
\newlabel{probSucc}{{4}{3}{b)}{claim.4}{}}
\@writefile{thm}{\contentsline {proof}{{Proof}{4}{}}{3}{proof.4}}
\@writefile{thm}{\contentsline {claim}{{Claim}{5}{}}{4}{claim.5}}
\newlabel{3:s}{{5}{4}{b)}{claim.5}{}}
\@writefile{thm}{\contentsline {proof}{{Proof}{5}{}}{4}{proof.5}}
\@writefile{thm}{\contentsline {claim}{{Claim}{6}{}}{4}{claim.6}}
\newlabel{3:s2}{{6}{4}{b)}{claim.6}{}}
\@writefile{thm}{\contentsline {proof}{{Proof}{6}{}}{4}{proof.6}}
\@writefile{toc}{\contentsline {section}{\numberline {4}}{4}{section.4}}
\@writefile{thm}{\contentsline {theorem}{{Theorem}{1}{}}{4}{theorem.4.1}}
\@writefile{thm}{\contentsline {claim}{{Claim}{7}{}}{4}{claim.7}}
\newlabel{4:claim1}{{7}{4}{}{claim.7}{}}
\@writefile{thm}{\contentsline {proof}{{Proof}{7}{}}{5}{proof.7}}
\@writefile{thm}{\contentsline {claim}{{Claim}{8}{}}{5}{claim.8}}
\@writefile{thm}{\contentsline {proof}{{Proof}{8}{}}{5}{proof.8}}
\@writefile{toc}{\contentsline {section}{\numberline {5}}{6}{section.5}}
