\relax 
\providecommand\hyper@newdestlabel[2]{}
\providecommand\HyperFirstAtBeginDocument{\AtBeginDocument}
\HyperFirstAtBeginDocument{\ifx\hyper@anchor\@undefined
\global\let\oldcontentsline\contentsline
\gdef\contentsline#1#2#3#4{\oldcontentsline{#1}{#2}{#3}}
\global\let\oldnewlabel\newlabel
\gdef\newlabel#1#2{\newlabelxx{#1}#2}
\gdef\newlabelxx#1#2#3#4#5#6{\oldnewlabel{#1}{{#2}{#3}}}
\AtEndDocument{\ifx\hyper@anchor\@undefined
\let\contentsline\oldcontentsline
\let\newlabel\oldnewlabel
\fi}
\fi}
\global\let\hyper@last\relax 
\gdef\HyperFirstAtBeginDocument#1{#1}
\providecommand\HyField@AuxAddToFields[1]{}
\providecommand\HyField@AuxAddToCoFields[2]{}
\@writefile{toc}{\contentsline {section}{\numberline {1}Topic Overview}{1}{section.1}}
\newlabel{topics}{{1}{1}{Topic Overview}{section.1}{}}
\@writefile{toc}{\contentsline {subsection}{\numberline {1.1}General Stuff}{1}{subsection.1.1}}
\@writefile{toc}{\contentsline {subsection}{\numberline {1.2}Algorithmic Paradigms}{2}{subsection.1.2}}
\newlabel{ap}{{1.2}{2}{Algorithmic Paradigms}{subsection.1.2}{}}
\@writefile{toc}{\contentsline {section}{\numberline {2}Study Methods}{3}{section.2}}
\newlabel{study}{{2}{3}{Study Methods}{section.2}{}}
\@writefile{toc}{\contentsline {subsection}{\numberline {2.1}Reviewing}{3}{subsection.2.1}}
