\relax 
\providecommand\hyper@newdestlabel[2]{}
\providecommand\HyperFirstAtBeginDocument{\AtBeginDocument}
\HyperFirstAtBeginDocument{\ifx\hyper@anchor\@undefined
\global\let\oldcontentsline\contentsline
\gdef\contentsline#1#2#3#4{\oldcontentsline{#1}{#2}{#3}}
\global\let\oldnewlabel\newlabel
\gdef\newlabel#1#2{\newlabelxx{#1}#2}
\gdef\newlabelxx#1#2#3#4#5#6{\oldnewlabel{#1}{{#2}{#3}}}
\AtEndDocument{\ifx\hyper@anchor\@undefined
\let\contentsline\oldcontentsline
\let\newlabel\oldnewlabel
\fi}
\fi}
\global\let\hyper@last\relax 
\gdef\HyperFirstAtBeginDocument#1{#1}
\providecommand\HyField@AuxAddToFields[1]{}
\providecommand\HyField@AuxAddToCoFields[2]{}
\@writefile{toc}{\contentsline {section}{\numberline {1}}{1}{section.1}}
\newlabel{eq:one}{{1.1}{1}{}{equation.1.1}{}}
\newlabel{eq:two}{{1.2}{1}{}{equation.1.2}{}}
\newlabel{eq:three}{{1.3}{1}{}{equation.1.3}{}}
\newlabel{eq:four}{{1.4}{1}{}{equation.1.4}{}}
\newlabel{eq:five}{{1.5}{1}{}{equation.1.5}{}}
\@writefile{toc}{\contentsline {section}{\numberline {2}}{2}{section.2}}
\newlabel{eq2:one}{{2.14}{3}{}{equation.2.14}{}}
\newlabel{eq2:two}{{2.15}{3}{}{equation.2.15}{}}
\newlabel{eq2:three}{{2.16}{3}{}{equation.2.16}{}}
\@writefile{toc}{\contentsline {section}{\numberline {3}}{3}{section.3}}
\newlabel{eq:threeOne}{{3.17}{4}{Reservoir Sampling Algorithm}{equation.3.17}{}}
\newlabel{eq:threeTwo}{{3.18}{4}{Reservoir Sampling Algorithm}{equation.3.18}{}}
\newlabel{eq:threeThree}{{3.19}{4}{Reservoir Sampling Algorithm}{equation.3.19}{}}
\newlabel{eq:threeThree}{{3.20}{4}{Reservoir Sampling Algorithm}{equation.3.20}{}}
\newlabel{eq:threeFour}{{3.21}{4}{Reservoir Sampling Algorithm}{equation.3.21}{}}
\newlabel{eq:threeFiveo}{{3.22}{4}{Reservoir Sampling Algorithm}{equation.3.22}{}}
\newlabel{eq:threeSixxx}{{3.23}{4}{Reservoir Sampling Algorithm}{equation.3.23}{}}
\@writefile{toc}{\contentsline {section}{\numberline {4}}{5}{section.4}}
