\relax 
\@writefile{toc}{\contentsline {section}{\numberline {2.1}Introduction}{1}}
\@writefile{toc}{\contentsline {section}{\numberline {2.2}Heavy Hitters}{1}}
\@writefile{toc}{\contentsline {subsection}{\numberline {2.2.1}Finding the Majority Element}{1}}
\citation{fds}
\@writefile{toc}{\contentsline {subsection}{\numberline {2.2.2}Bloom Filters}{3}}
\@writefile{toc}{\contentsline {subsection}{\numberline {2.2.3}The Count-Min Algorithm}{4}}
\newlabel{eq:markov}{{2.2.1}{4}}
\newlabel{eq:one}{{2.2.2}{5}}
\newlabel{eq:two}{{2.2.3}{5}}
\newlabel{eq:three}{{2.2.4}{5}}
\newlabel{eq:four}{{2.2.5}{5}}
\bibcite{tim}{1}
\bibcite{fds}{2}
\@writefile{toc}{\contentsline {section}{\numberline {2.3}Turnstile Model}{6}}
