\relax 
\providecommand\hyper@newdestlabel[2]{}
\providecommand\HyperFirstAtBeginDocument{\AtBeginDocument}
\HyperFirstAtBeginDocument{\ifx\hyper@anchor\@undefined
\global\let\oldcontentsline\contentsline
\gdef\contentsline#1#2#3#4{\oldcontentsline{#1}{#2}{#3}}
\global\let\oldnewlabel\newlabel
\gdef\newlabel#1#2{\newlabelxx{#1}#2}
\gdef\newlabelxx#1#2#3#4#5#6{\oldnewlabel{#1}{{#2}{#3}}}
\AtEndDocument{\ifx\hyper@anchor\@undefined
\let\contentsline\oldcontentsline
\let\newlabel\oldnewlabel
\fi}
\fi}
\global\let\hyper@last\relax 
\gdef\HyperFirstAtBeginDocument#1{#1}
\providecommand\HyField@AuxAddToFields[1]{}
\providecommand\HyField@AuxAddToCoFields[2]{}
\@writefile{toc}{\contentsline {section}{\numberline {1}Problem Statement}{1}{section.1}}
\@writefile{thm}{\contentsline {definition}{{Definition}{1}{}}{1}{definition.1}}
\@writefile{thm}{\contentsline {definition}{{Definition}{2}{}}{1}{definition.2}}
\@writefile{thm}{\contentsline {definition}{{Definition}{3}{}}{1}{definition.3}}
\@writefile{toc}{\contentsline {section}{\numberline {2}Gale-Shapley}{2}{section.2}}
\@writefile{toc}{\contentsline {subsection}{\numberline {2.1}Algorithm Statement}{2}{subsection.2.1}}
\@writefile{toc}{\contentsline {subsection}{\numberline {2.2}Proof of Correctness}{3}{subsection.2.2}}
\@writefile{thm}{\contentsline {claim}{{Claim}{1}{}}{3}{claim.1}}
\newlabel{womanBetter}{{1}{3}{Proof of Correctness}{claim.1}{}}
\@writefile{thm}{\contentsline {proof}{{Proof}{1}{}}{3}{proof.1}}
\@writefile{thm}{\contentsline {claim}{{Claim}{2}{}}{3}{claim.2}}
\@writefile{thm}{\contentsline {theorem}{{Theorem}{1}{}}{3}{theorem.2.1}}
\@writefile{thm}{\contentsline {proof}{{Proof}{2}{}}{3}{proof.2}}
\newlabel{TODO: THESE PROOFS}{{2.2}{3}{Proof of Correctness}{proof.2}{}}
\@writefile{thm}{\contentsline {claim}{{Claim}{3}{}}{3}{claim.3}}
\newlabel{noSingleMen}{{3}{3}{Proof of Correctness}{claim.3}{}}
\@writefile{thm}{\contentsline {proof}{{Proof}{3}{}}{3}{proof.3}}
\@writefile{thm}{\contentsline {claim}{{Claim}{4}{}}{3}{claim.4}}
\newlabel{perfect}{{4}{3}{Proof of Correctness}{claim.4}{}}
\@writefile{thm}{\contentsline {proof}{{Proof}{4}{}}{3}{proof.4}}
\@writefile{thm}{\contentsline {theorem}{{Theorem}{2}{}}{3}{theorem.2.2}}
\@writefile{thm}{\contentsline {proof}{{Proof}{5}{}}{3}{proof.5}}
\global\def\markvproofi{\ensuremath {_\blacksquare }}
\@writefile{toc}{\contentsline {subsection}{\numberline {2.3}(Un)fairness}{4}{subsection.2.3}}
\@writefile{thm}{\contentsline {theorem}{{Theorem}{3}{}}{4}{theorem.2.3}}
\@writefile{thm}{\contentsline {proof}{{Proof}{6}{}}{4}{proof.6}}
\newlabel{and $w'$ is a valid partner of $m'$}{{6}{5}{(Un)fairness}{proof.6}{}}
\@writefile{thm}{\contentsline {claim}{{Claim}{5}{}}{5}{claim.5}}
\@writefile{thm}{\contentsline {proof}{{Proof}{7}{}}{5}{proof.7}}
\@writefile{toc}{\contentsline {section}{\numberline {3}Variants}{5}{section.3}}
\@writefile{toc}{\contentsline {subsection}{\numberline {3.1}Being Single}{5}{subsection.3.1}}
\@writefile{toc}{\contentsline {subsection}{\numberline {3.2}Lying}{5}{subsection.3.2}}
\@writefile{toc}{\contentsline {subsection}{\numberline {3.3}Polygamy}{5}{subsection.3.3}}
\@writefile{toc}{\contentsline {subsection}{\numberline {3.4}NRMP}{6}{subsection.3.4}}
