\relax 
\providecommand\hyper@newdestlabel[2]{}
\providecommand\HyperFirstAtBeginDocument{\AtBeginDocument}
\HyperFirstAtBeginDocument{\ifx\hyper@anchor\@undefined
\global\let\oldcontentsline\contentsline
\gdef\contentsline#1#2#3#4{\oldcontentsline{#1}{#2}{#3}}
\global\let\oldnewlabel\newlabel
\gdef\newlabel#1#2{\newlabelxx{#1}#2}
\gdef\newlabelxx#1#2#3#4#5#6{\oldnewlabel{#1}{{#2}{#3}}}
\AtEndDocument{\ifx\hyper@anchor\@undefined
\let\contentsline\oldcontentsline
\let\newlabel\oldnewlabel
\fi}
\fi}
\global\let\hyper@last\relax 
\gdef\HyperFirstAtBeginDocument#1{#1}
\providecommand\HyField@AuxAddToFields[1]{}
\providecommand\HyField@AuxAddToCoFields[2]{}
\@writefile{toc}{\contentsline {section}{\numberline {1}What to review}{1}{section.1}}
\@writefile{toc}{\contentsline {section}{\numberline {2}Problem Solving Overview}{1}{section.2}}
\@writefile{toc}{\contentsline {subsection}{\numberline {2.1}Algorithmic Paradigms}{1}{subsection.2.1}}
\@writefile{toc}{\contentsline {section}{\numberline {3}NP-completeness}{2}{section.3}}
\@writefile{toc}{\contentsline {subsection}{\numberline {3.1}Thinking in Problems}{2}{subsection.3.1}}
\@writefile{toc}{\contentsline {subsubsection}{\numberline {3.1.1}Problems vs Algorithms}{2}{subsubsection.3.1.1}}
\@writefile{toc}{\contentsline {subsubsection}{\numberline {3.1.2}Search vs decision}{2}{subsubsection.3.1.2}}
\@writefile{toc}{\contentsline {subsubsection}{\numberline {3.1.3}Classes of Problems}{2}{subsubsection.3.1.3}}
\@writefile{toc}{\contentsline {subsection}{\numberline {3.2}Complexity Classes}{2}{subsection.3.2}}
\@writefile{toc}{\contentsline {subsubsection}{\numberline {3.2.1}P}{2}{subsubsection.3.2.1}}
\@writefile{thm}{\contentsline {definition}{{Definition}{1}{}}{2}{definition.1}}
\@writefile{toc}{\contentsline {subsubsection}{\numberline {3.2.2}NP}{2}{subsubsection.3.2.2}}
\@writefile{thm}{\contentsline {definition}{{Definition}{2}{}}{2}{definition.2}}
\@writefile{toc}{\contentsline {subsubsection}{\numberline {3.2.3}Polynomial-Time Mapping Reduction}{2}{subsubsection.3.2.3}}
\@writefile{toc}{\contentsline {subsection}{\numberline {3.3}NP-hard}{2}{subsection.3.3}}
\@writefile{thm}{\contentsline {definition}{{Definition}{3}{}}{2}{definition.3}}
\@writefile{toc}{\contentsline {subsection}{\numberline {3.4}NP-complete}{2}{subsection.3.4}}
\@writefile{thm}{\contentsline {definition}{{Definition}{4}{}}{2}{definition.4}}
\@writefile{thm}{\contentsline {theorem}{{Theorem}{1}{}}{2}{theorem.3.1}}
\@writefile{toc}{\contentsline {subsubsection}{\numberline {3.4.1}Proving P=NP}{2}{subsubsection.3.4.1}}
\@writefile{toc}{\contentsline {section}{\numberline {4}Reductions}{3}{section.4}}
\@writefile{toc}{\contentsline {section}{\numberline {5}Graph Algorithms}{3}{section.5}}
\@writefile{toc}{\contentsline {subsection}{\numberline {5.1}MST}{3}{subsection.5.1}}
\@writefile{toc}{\contentsline {subsection}{\numberline {5.2}Search}{3}{subsection.5.2}}
\@writefile{toc}{\contentsline {subsection}{\numberline {5.3}Flow}{4}{subsection.5.3}}
\@writefile{thm}{\contentsline {definition}{{Definition}{5}{}}{4}{definition.5}}
\@writefile{thm}{\contentsline {definition}{{Definition}{6}{}}{4}{definition.6}}
\@writefile{thm}{\contentsline {definition}{{Definition}{7}{}}{4}{definition.7}}
\@writefile{thm}{\contentsline {definition}{{Definition}{8}{}}{4}{definition.8}}
\@writefile{thm}{\contentsline {theorem}{{Theorem}{2}{}}{4}{theorem.5.2}}
\@writefile{thm}{\contentsline {theorem}{{Theorem}{3}{Konig's theorem}}{4}{theorem.5.3}}
