\relax 
\providecommand\hyper@newdestlabel[2]{}
\providecommand\HyperFirstAtBeginDocument{\AtBeginDocument}
\HyperFirstAtBeginDocument{\ifx\hyper@anchor\@undefined
\global\let\oldcontentsline\contentsline
\gdef\contentsline#1#2#3#4{\oldcontentsline{#1}{#2}{#3}}
\global\let\oldnewlabel\newlabel
\gdef\newlabel#1#2{\newlabelxx{#1}#2}
\gdef\newlabelxx#1#2#3#4#5#6{\oldnewlabel{#1}{{#2}{#3}}}
\AtEndDocument{\ifx\hyper@anchor\@undefined
\let\contentsline\oldcontentsline
\let\newlabel\oldnewlabel
\fi}
\fi}
\global\let\hyper@last\relax 
\gdef\HyperFirstAtBeginDocument#1{#1}
\providecommand\HyField@AuxAddToFields[1]{}
\providecommand\HyField@AuxAddToCoFields[2]{}
\citation{overviewMusc}
\@writefile{toc}{\contentsline {section}{\numberline {1}Introduction}{1}{section.1}}
\@writefile{toc}{\contentsline {subsection}{\numberline {1.1}Staff Line Removal}{1}{subsection.1.1}}
\citation{staffDalitz}
\citation{staffGAN}
\citation{staffDalitz}
\citation{staffDalitz}
\@writefile{toc}{\contentsline {section}{\numberline {2}Project Goals}{2}{section.2}}
\@writefile{toc}{\contentsline {section}{\numberline {3}Timetable}{2}{section.3}}
\citation{*}
\bibstyle{plain}
\bibdata{bibliography}
\bibcite{endZar}{1}
\bibcite{staffConnPath}{2}
\bibcite{staffDalitz}{3}
\bibcite{overviewMusc}{4}
\bibcite{staffGAN}{5}
\bibcite{overviewOMR}{6}
\bibcite{dataPach}{7}
\bibcite{classifyRebelo}{8}
\bibcite{endWel}{9}
\bibcite{classifyWen}{10}
