\relax 
\providecommand\hyper@newdestlabel[2]{}
\providecommand\HyperFirstAtBeginDocument{\AtBeginDocument}
\HyperFirstAtBeginDocument{\ifx\hyper@anchor\@undefined
\global\let\oldcontentsline\contentsline
\gdef\contentsline#1#2#3#4{\oldcontentsline{#1}{#2}{#3}}
\global\let\oldnewlabel\newlabel
\gdef\newlabel#1#2{\newlabelxx{#1}#2}
\gdef\newlabelxx#1#2#3#4#5#6{\oldnewlabel{#1}{{#2}{#3}}}
\AtEndDocument{\ifx\hyper@anchor\@undefined
\let\contentsline\oldcontentsline
\let\newlabel\oldnewlabel
\fi}
\fi}
\global\let\hyper@last\relax 
\gdef\HyperFirstAtBeginDocument#1{#1}
\providecommand\HyField@AuxAddToFields[1]{}
\providecommand\HyField@AuxAddToCoFields[2]{}
\@writefile{toc}{\contentsline {section}{\numberline {1}}{1}{section.1}}
\@writefile{thm}{\contentsline {claim}{{Claim}{1}{}}{1}{claim.1}}
\newlabel{DAG}{{1}{1}{}{claim.1}{}}
\@writefile{thm}{\contentsline {proof}{{Proof}{1}{}}{1}{proof.1}}
\@writefile{thm}{\contentsline {claim}{{Claim}{2}{}}{1}{claim.2}}
\@writefile{thm}{\contentsline {proof}{{Proof}{2}{}}{2}{proof.2}}
\@writefile{thm}{\contentsline {claim}{{Claim}{3}{}}{2}{claim.3}}
\@writefile{thm}{\contentsline {proof}{{Proof}{3}{}}{2}{proof.3}}
\@writefile{toc}{\contentsline {section}{\numberline {2}}{2}{section.2}}
\@writefile{thm}{\contentsline {claim}{{Claim}{4}{}}{3}{claim.4}}
\@writefile{thm}{\contentsline {proof}{{Proof}{4}{}}{3}{proof.4}}
\@writefile{thm}{\contentsline {claim}{{Claim}{5}{}}{4}{claim.5}}
\@writefile{thm}{\contentsline {proof}{{Proof}{5}{}}{4}{proof.5}}
\newlabel{TODO}{{2}{4}{d) [EXTRA CREDIT]}{section*.4}{}}
\@writefile{thm}{\contentsline {claim}{{Claim}{6}{}}{5}{claim.6}}
\@writefile{thm}{\contentsline {proof}{{Proof}{6}{}}{5}{proof.6}}
\@writefile{thm}{\contentsline {claim}{{Claim}{7}{}}{5}{claim.7}}
\@writefile{thm}{\contentsline {proof}{{Proof}{7}{}}{5}{proof.7}}
\@writefile{toc}{\contentsline {section}{\numberline {3}}{6}{section.3}}
\@writefile{thm}{\contentsline {claim}{{Claim}{8}{}}{6}{claim.8}}
\@writefile{thm}{\contentsline {proof}{{Proof}{8}{}}{6}{proof.8}}
\@writefile{thm}{\contentsline {claim}{{Claim}{9}{}}{7}{claim.9}}
\@writefile{thm}{\contentsline {proof}{{Proof}{9}{}}{7}{proof.9}}
\@writefile{thm}{\contentsline {claim}{{Claim}{10}{}}{7}{claim.10}}
\@writefile{thm}{\contentsline {proof}{{Proof}{10}{}}{7}{proof.10}}
\global\def\markxproof{\ensuremath {_\blacksquare }}
\@writefile{toc}{\contentsline {section}{\numberline {4}}{7}{section.4}}
\@writefile{thm}{\contentsline {claim}{{Claim}{11}{}}{7}{claim.11}}
\@writefile{thm}{\contentsline {proof}{{Proof}{11}{}}{7}{proof.11}}
\@writefile{thm}{\contentsline {claim}{{Claim}{12}{}}{8}{claim.12}}
\@writefile{thm}{\contentsline {proof}{{Proof}{12}{}}{8}{proof.12}}
\@writefile{thm}{\contentsline {claim}{{Claim}{13}{}}{8}{claim.13}}
\@writefile{thm}{\contentsline {proof}{{Proof}{13}{}}{8}{proof.13}}
\@writefile{thm}{\contentsline {claim}{{Claim}{14}{}}{9}{claim.14}}
\@writefile{thm}{\contentsline {proof}{{Proof}{14}{}}{9}{proof.14}}
\@writefile{thm}{\contentsline {claim}{{Claim}{15}{}}{9}{claim.15}}
\@writefile{thm}{\contentsline {proof}{{Proof}{15}{}}{9}{proof.15}}
\@writefile{toc}{\contentsline {section}{\numberline {5}}{9}{section.5}}
\@writefile{thm}{\contentsline {claim}{{Claim}{16}{}}{10}{claim.16}}
\@writefile{thm}{\contentsline {proof}{{Proof}{16}{}}{10}{proof.16}}
\@writefile{thm}{\contentsline {claim}{{Claim}{17}{}}{10}{claim.17}}
\@writefile{thm}{\contentsline {proof}{{Proof}{17}{}}{10}{proof.17}}
